Faulkner and Punctuation - Text Processing Supplement: Outliers
…
# Create punctuation table and remove Requiem because the punctuation patterns do not match that of a novel. This table is used continuously downstream. It produces the relative frequencies of punctuation in the corpus.

summary_punctuation <- all_works_punctuation %>%
  group_by(title, date, code, type) %>%
  filter(title != 'requiem') %>% 
  summarise(across(string_length:parenthesis, ~ mean(.x))) 

`summarise()` has grouped output by 'title', 'date', 'code'. You can override
using the `.groups` argument.

Code

summary_punctuation %>% slice_max(10)

# A tibble: 112 × 11
# Groups:   title, date, code [112]
   title  date  code  type  string_length ellipse comma semi_colon   dash  colon
   <chr>  <chr> <chr> <chr>         <dbl>   <dbl> <dbl>      <dbl>  <dbl>  <dbl>
 1 Lo     1934  L     shor…          15.3 0.0646  1.02      0.108  0.0604 0.0854
 2 absal… 1936  AA    novel          43.1 0.00192 2.38      0.285  0.504  0.238 
 3 adang… 1930  ZZ    shor…          15.8 0.00513 1.14      0.108  0.179  0.0462
 4 adast… 1931  AD    shor…          11.2 0.0153  0.812     0.0826 0.0505 0.0260
 5 adole… 1922  ZZ    shor…          15.8 0.00826 1.08      0.129  0.129  0.0854
 6 after… 1947  ZZ    shor…          29.4 0       1.75      0.169  0.305  0.0519
 7 aljac… 1925  ZZ    shor…          19.2 0       0.955     0.0536 0.107  0.0804
 8 allth… 1931  ADP   shor…          15.8 0.00688 1.03      0.0436 0.0665 0.0459
 9 ambus… 1934  AMB   shor…          12.1 0.00855 0.765     0.0919 0.109  0.0321
10 aretu… 1938  ZZ    shor…          23.3 0.0113  1.28      0.0994 0.235  0.0750
# ℹ 102 more rows
# ℹ 1 more variable: parenthesis <dbl>
…
`summarise()` has grouped output by 'title'. You can override using the
`.groups` argument.

Code

sentence_long_short_percent

# A tibble: 113 × 5
# Groups:   title [113]
   title            code  all_sentence long_sentences percent_long
   <chr>            <chr>        <int>          <int>        <dbl>
 1 Lo               L              480            140        0.292
 2 absalomcorrect   AA            3130           1595        0.510
 3 adangerousman    ZZ             195             65        0.333
 4 adastra          AD             654            129        0.197
 5 adolesence       ZZ             363            149        0.410
 6 afternooncow     ZZ             154             83        0.539
 7 aljackson        ZZ             112             49        0.438
 8 allthedeadpilots ADP            436            143        0.328
 9 ambuscade        AMB            468            112        0.239
10 areturn          ZZ             533            175        0.328
# ℹ 103 more rows
…
